Read files in various standard formats (FASTA, GFF3, GBK, BED, BLAST, ...) into track tables — read_tracks • gggenomes
…
#> # A tibble: 1 × 3
#>   source type              n
#>   <chr>  <chr>         <int>
#> 1 MFG    repeat_region    12
#> * file_id: emales [/home/runner/work/_temp/Library/gggenomes/extdata/emales//emales.gff]
#> Harmonizing attribute names
#> * ID -> feat_id
#> * Name -> name
#> * Note -> note
#> Features read
#> # A tibble: 1 × 3
#>   source type      n
#>   <chr>  <chr> <int>
#> 1 MFG    CDS     143
#> # A tibble: 158 × 17
#>    file_id  seq_id  start   end strand type   feat_id  introns parent_ids source
#>    <chr>    <chr>   <int> <int> <chr>  <chr>  <chr>    <list>  <list>     <chr> 
#>  1 emales-… BVI_00… 11043 17065 .      repea… nBVI_008 <NULL>  <chr [1]>  MFG   
#>  2 emales-… BVI_069  7894 14280 .      repea… nBVI_069 <NULL>  <chr [1]>  MFG   
#>  3 emales-… E4-10_…  2854  9283 .      repea… nE4-10_… <NULL>  <chr [1]>  MFG   
#>  4 emales-… BVI_00…     1   473 +      repea… BVI_008… <NULL>  <chr [1]>  MFG   
#>  5 emales-… BVI_00… 26348 26820 -      repea… BVI_008… <NULL>  <chr [1]>  MFG   
#>  6 emales-… BVI_069     1   488 +      repea… BVI_069… <NULL>  <chr [1]>  MFG   
#>  7 emales-… BVI_069 26321 26808 -      repea… BVI_069… <NULL>  <chr [1]>  MFG   
#>  8 emales-… Cflag_…     1  1081 +      repea… Cflag_0… <NULL>  <chr [1]>  MFG   
#>  9 emales-… Cflag_… 20231 21311 -      repea… Cflag_0… <NULL>  <chr [1]>  MFG   
#> 10 emales-… E4-10_…     1   319 +      repea… E4-10_0… <NULL>  <chr [1]>  MFG   
#> # … with 148 more rows, and 7 more variables: score <chr>, phase <chr>,
#> #   name <chr>, geom_id <chr>, width <chr>, gc_content <chr>, note <chr>
…
