…
#> # A tibble: 1 × 3
#>   source type              n
#>   <chr>  <chr>         <int>
#> 1 MFG    repeat_region    12
#> * file_id: emales [/home/runner/work/_temp/Library/gggenomes/extdata/emales//emales.gff]
#> Harmonizing attribute names
#> • ID -> feat_id
#> • Name -> name
#> • Note -> note
#> Features read
#> # A tibble: 1 × 3
#>   source type      n
#>   <chr>  <chr> <int>
#> 1 MFG    CDS     143
#> # A tibble: 158 × 17
#>    file_id     seq_id start   end strand type  feat_id introns parent_ids source
#>    <chr>       <chr>  <int> <int> <chr>  <chr> <chr>   <list>  <list>     <chr> 
#>  1 emales-nga… BVI_0… 11043 17065 NA     repe… nBVI_0… <NULL>  <chr [1]>  MFG   
#>  2 emales-nga… BVI_0…  7894 14280 NA     repe… nBVI_0… <NULL>  <chr [1]>  MFG   
#>  3 emales-nga… E4-10…  2854  9283 NA     repe… nE4-10… <NULL>  <chr [1]>  MFG   
#>  4 emales-tirs BVI_0…     1   473 +      repe… BVI_00… <NULL>  <chr [1]>  MFG   
#>  5 emales-tirs BVI_0… 26348 26820 -      repe… BVI_00… <NULL>  <chr [1]>  MFG   
#>  6 emales-tirs BVI_0…     1   488 +      repe… BVI_06… <NULL>  <chr [1]>  MFG   
#>  7 emales-tirs BVI_0… 26321 26808 -      repe… BVI_06… <NULL>  <chr [1]>  MFG   
#>  8 emales-tirs Cflag…     1  1081 +      repe… Cflag_… <NULL>  <chr [1]>  MFG   
#>  9 emales-tirs Cflag… 20231 21311 -      repe… Cflag_… <NULL>  <chr [1]>  MFG   
#> 10 emales-tirs E4-10…     1   319 +      repe… E4-10_… <NULL>  <chr [1]>  MFG   
#> # ℹ 148 more rows
#> # ℹ 7 more variables: score <chr>, phase <chr>, name <chr>, geom_id <chr>,
#> #   width <chr>, gc_content <chr>, note <chr>
…
#> • isolation-source -> isolation_source
#> • lab-host -> lab_host
#> • lat-lon -> lat_lon
#> • Name -> name
#> • Parent -> parent_ids
#> • Note -> note
#> Features read
#> # A tibble: 4 × 3
#>   source type           n
#>   <chr>  <chr>      <int>
#> 1 RefSeq CDS           53
#> 2 RefSeq gene          53
#> 3 RefSeq pseudogene     3
#> 4 RefSeq region         1
#> # A tibble: 228 × 36
#>    file_id seq_id     start   end strand type  feat_id introns parent_ids source
#>    <chr>   <chr>      <int> <int> <chr>  <chr> <chr>   <list>  <list>     <chr> 
#>  1 PSSP7   NC_006882…     1 45176 +      regi… NC_006… <NULL>  <chr [1]>  RefSeq
#>  2 PSSP7   NC_006882…  1079  1816 +      gene  gene-P… <int>   <chr [1]>  RefSeq
#>  3 PSSP7   NC_006882…  1079  1816 +      CDS   cds-YP… <NULL>  <chr [1]>  RefSeq
#>  4 PSSP7   NC_006882…  1845  2423 +      gene  gene-P… <int>   <chr [1]>  RefSeq
#>  5 PSSP7   NC_006882…  1845  2423 +      CDS   cds-YP… <NULL>  <chr [1]>  RefSeq
#>  6 PSSP7   NC_006882…  2637  2903 +      gene  gene-P… <int>   <chr [1]>  RefSeq
#>  7 PSSP7   NC_006882…  2637  2903 +      CDS   cds-YP… <NULL>  <chr [1]>  RefSeq
#>  8 PSSP7   NC_006882…  2900  3130 +      gene  gene-P… <int>   <chr [1]>  RefSeq
#>  9 PSSP7   NC_006882…  2900  3130 +      CDS   cds-YP… <NULL>  <chr [1]>  RefSeq
#> 10 PSSP7   NC_006882…  3127  3291 +      gene  gene-P… <int>   <chr [1]>  RefSeq
#> # ℹ 218 more rows
#> # ℹ 26 more variables: score <chr>, phase <chr>, name <chr>, dbxref <chr>,
#> #   gbkey <chr>, genome <chr>, mol_type <chr>, old_name <chr>,
#> #   gene_biotype <chr>, locus_tag <chr>, experiment <chr>, product <chr>,
#> #   protein_id <chr>, transl_table <chr>, gene <chr>, note <chr>,
#> #   geom_id <chr>, collection_date <chr>, isolation_source <chr>,
#> #   lab_host <chr>, lat_lon <chr>, strain <chr>, description <chr>, …
…
