• gggenomes
…
# inspect genes track with layout vars - note y,x,xend, but also other
# columns such as strand, feat_id or type, that are added automatically
p %>% pull_genes

## # A tibble: 143 × 22
##        y     x  xend bin_id   seq_id   start   end file_id strand type  feat_id 
##    <int> <dbl> <dbl> <chr>    <chr>    <int> <int> <chr>   <chr>  <chr> <chr>   
##  1     2   567   822 BVI_008A BVI_008A   568   822 emales  +      CDS   BVI_008…
##  2     2  2668  1039 BVI_008A BVI_008A  1040  2668 emales  -      CDS   BVI_008…
##  3     2  3028  2767 BVI_008A BVI_008A  2768  3028 emales  -      CDS   BVI_008…
##  4     2  4776  3138 BVI_008A BVI_008A  3139  4776 emales  -      CDS   BVI_008…
##  5     2  5370  4809 BVI_008A BVI_008A  4810  5370 emales  -      CDS   BVI_008…
##  6     2  6065  5396 BVI_008A BVI_008A  5397  6065 emales  -      CDS   BVI_008…
##  7     2  6683  6074 BVI_008A BVI_008A  6075  6683 emales  -      CDS   BVI_008…
##  8     2  6867  6540 BVI_008A BVI_008A  6541  6867 emales  -      CDS   BVI_008…
##  9     2  6954  7788 BVI_008A BVI_008A  6955  7788 emales  +      CDS   BVI_008…
## 10     2  7997  9026 BVI_008A BVI_008A  7998  9026 emales  +      CDS   BVI_008…
## # … with 133 more rows, and 11 more variables: introns <list>,
## #   parent_ids <list>, source <chr>, score <chr>, phase <int>, width <chr>,
## #   gc_content <chr>, name <chr>, Note <chr>, geom_id <chr>, .marginal <lgl>
…
